dplyr basics
…
Example: select rows from flights, for which arr_delay is \(\leq 120\) and dep_delay is \(\leq 120\)

#uses logic for the conditions, not greater than 120
filter(flights, !(arr_delay > 120 | dep_delay > 120))

# A tibble: 316,050 × 19
    year month   day dep_time sched_de…¹ dep_d…² arr_t…³ sched…⁴ arr_d…⁵ carrier
   <int> <int> <int>    <int>      <int>   <dbl>   <int>   <int>   <dbl> <chr>  
 1  2013     1     1      517        515       2     830     819      11 UA     
 2  2013     1     1      533        529       4     850     830      20 UA     
 3  2013     1     1      542        540       2     923     850      33 AA     
 4  2013     1     1      544        545      -1    1004    1022     -18 B6     
 5  2013     1     1      554        600      -6     812     837     -25 DL     
 6  2013     1     1      554        558      -4     740     728      12 UA     
 7  2013     1     1      555        600      -5     913     854      19 B6     
 8  2013     1     1      557        600      -3     709     723     -14 EV     
 9  2013     1     1      557        600      -3     838     846      -8 B6     
10  2013     1     1      558        600      -2     753     745       8 AA     
# … with 316,040 more rows, 9 more variables: flight <int>, tailnum <chr>,
#   origin <chr>, dest <chr>, air_time <dbl>, distance <dbl>, hour <dbl>,
#   minute <dbl>, time_hour <dttm>, and abbreviated variable names
#   ¹​sched_dep_time, ²​dep_delay, ³​arr_time, ⁴​sched_arr_time, ⁵​arr_delay
…
arrange

arrange orders the rows of a data frame according to some criteria. Its syntax is

arrange(data, ...)

where data is the name of a data frame or tibble and ... are other conditions

Example: order the rows of flights by year number, month number, and day number

#unique(flights$year)
arrange(flights, year, month, day)

# A tibble: 336,776 × 19
    year month   day dep_time sched_de…¹ dep_d…² arr_t…³ sched…⁴ arr_d…⁵ carrier
   <int> <int> <int>    <int>      <int>   <dbl>   <int>   <int>   <dbl> <chr>  
 1  2013     1     1      517        515       2     830     819      11 UA     
 2  2013     1     1      533        529       4     850     830      20 UA     
 3  2013     1     1      542        540       2     923     850      33 AA     
 4  2013     1     1      544        545      -1    1004    1022     -18 B6     
 5  2013     1     1      554        600      -6     812     837     -25 DL     
 6  2013     1     1      554        558      -4     740     728      12 UA     
 7  2013     1     1      555        600      -5     913     854      19 B6     
 8  2013     1     1      557        600      -3     709     723     -14 EV     
 9  2013     1     1      557        600      -3     838     846      -8 B6     
10  2013     1     1      558        600      -2     753     745       8 AA     
# … with 336,766 more rows, 9 more variables: flight <int>, tailnum <chr>,
#   origin <chr>, dest <chr>, air_time <dbl>, distance <dbl>, hour <dbl>,
#   minute <dbl>, time_hour <dttm>, and abbreviated variable names
#   ¹​sched_dep_time, ²​dep_delay, ³​arr_time, ⁴​sched_arr_time, ⁵​arr_delay

Column operations

select

select keeps columns whose names are specified. Its syntax is:

select(data, ...)

Example: keep columns of flights with column names year up till day

select(flights, year:day)

# A tibble: 336,776 × 3
    year month   day
   <int> <int> <int>
 1  2013     1     1
 2  2013     1     1
 3  2013     1     1
 4  2013     1     1
 5  2013     1     1
 6  2013     1     1
 7  2013     1     1
 8  2013     1     1
 9  2013     1     1
10  2013     1     1
# … with 336,766 more rows

Heads up: the latest version of dplyr might actually drop variables instead of just showing the variables that meet the condition when using the select function.

Example: select from flights all columns except those from year to day (inclusive)

select(flights, -(year:day))

# A tibble: 336,776 × 16
   dep_t…¹ sched…² dep_d…³ arr_t…⁴ sched…⁵ arr_d…⁶ carrier flight tailnum origin
     <int>   <int>   <dbl>   <int>   <int>   <dbl> <chr>    <int> <chr>   <chr> 
 1     517     515       2     830     819      11 UA        1545 N14228  EWR   
 2     533     529       4     850     830      20 UA        1714 N24211  LGA   
 3     542     540       2     923     850      33 AA        1141 N619AA  JFK   
 4     544     545      -1    1004    1022     -18 B6         725 N804JB  JFK   
 5     554     600      -6     812     837     -25 DL         461 N668DN  LGA   
 6     554     558      -4     740     728      12 UA        1696 N39463  EWR   
 7     555     600      -5     913     854      19 B6         507 N516JB  EWR   
 8     557     600      -3     709     723     -14 EV        5708 N829AS  LGA   
 9     557     600      -3     838     846      -8 B6          79 N593JB  JFK   
10     558     600      -2     753     745       8 AA         301 N3ALAA  LGA   
# … with 336,766 more rows, 6 more variables: dest <chr>, air_time <dbl>,
#   distance <dbl>, hour <dbl>, minute <dbl>, time_hour <dttm>, and abbreviated
#   variable names ¹​dep_time, ²​sched_dep_time, ³​dep_delay, ⁴​arr_time,
#   ⁵​sched_arr_time, ⁶​arr_delay
…
